
import java.util.Scanner;

/**
 *
 * @author OSCARITO
 */
public class Factorial {

    /**
     * @param args the command line arguments
     */
    public static void main(String[] args) {
        int number; //Numero que ingresa el usuario
        java.util.Scanner scan =new java.util.Scanner(System.in); //Scanner similar a cin en c++ 
        System.out.println("Ingresa numero"); //System.out.println similar a cout
        number=scan.nextInt();// cin<<number
        //Ciclo para calcular factorial
        int resultado = 1;
        for (int i = 1; i <= n; i++) {
            resultado *= i;
        }
        System.out.println("Facotial="+resultado);
    }
    
}
