CUENTA,CLIENTE,SUCURSAL,EJECUTIVO,PROBLEMATICA
3060-07802358,"ROGELIO GONZALEZ JIMENEZ","VAZCO DE QUIROGA","EJECUTIVOS DE COBRANZA",COBRANZA
3017-09513930,"ROSENDO REZA BOLANOS","PICACHO AJUSCO",,COBRANZA
3060-07802358,"ROGELIO GONZALEZ JIMENEZ",no,cobranza,"que la forma en que le cobraron fue amenasant"
